<?xml version="1.0" encoding="UTF-8"?>
<svg class="" width="24px" height="24px" viewBox="0 0 24 24" version="1.1" xmlns="http://www.w3.org/2000/svg" xmlns:xlink="http://www.w3.org/1999/xlink">
    <!-- Generator: Sketch 50.2 (55047) - http://www.bohemiancoding.com/sketch -->
    <title>Stockholm-icons / Clothes / Cap</title>
    <desc>Created with Sketch.</desc>
    <defs></defs>
    <g id="Stockholm-icons-/-Clothes-/-Cap" stroke="none" stroke-width="1" fill="none" fill-rule="evenodd">
        <polygon id="bound" points="0 0 24 0 24 24 0 24"></polygon>
        <rect id="Rectangle-147" fill="#000000" opacity="0.3" x="14" y="4.69999981" width="3" height="3" rx="1.5"></rect>
        <path d="M6.82775054,15 C6.82139512,14.8644343 6.81818182,14.728047 6.81818182,14.5909091 C6.81818182,9.84628101 10.6644628,6 15.4090909,6 C18.9411859,6 21.9754239,8.13157886 23.2955957,11.1785272 C21.7651986,11.659899 21,12.6003899 21,14 C21,14 21.993332,14 23.979996,14 C23.9932599,14.1952513 24,14.3922931 24,14.5909091 C24,14.728047 23.9967867,14.8644343 23.9904313,15 L24,15 L24,16.5 C24,16.7761424 23.7761424,17 23.5,17 L1,17 C0.44771525,17 5.69110542e-14,16.5522847 5.68434189e-14,16 C5.67757835e-14,15.4477153 0.44771525,15 1,15 L6.82775054,15 Z" id="Combined-Shape" fill="#000000"></path>
    </g>
</svg>