<?xml version="1.0" encoding="UTF-8"?>
<svg class="" width="24px" height="24px" viewBox="0 0 24 24" version="1.1" xmlns="http://www.w3.org/2000/svg" xmlns:xlink="http://www.w3.org/1999/xlink">
    <!-- Generator: Sketch 50.2 (55047) - http://www.bohemiancoding.com/sketch -->
    <title>Stockholm-icons / Shopping / Chart-pie</title>
    <desc>Created with Sketch.</desc>
    <defs></defs>
    <g id="Stockholm-icons-/-Shopping-/-Chart-pie" stroke="none" stroke-width="1" fill="none" fill-rule="evenodd">
        <rect id="bound" x="0" y="0" width="24" height="24"></rect>
        <path d="M4.00246329,12.2004927 L13,14 L13,4.06189375 C16.9463116,4.55399184 20,7.92038235 20,12 C20,16.418278 16.418278,20 12,20 C7.64874861,20 4.10886412,16.5261253 4.00246329,12.2004927 Z" id="Combined-Shape" fill="#000000" opacity="0.3"></path>
        <path d="M3.0603968,10.0120794 C3.54712466,6.05992157 6.91622084,3 11,3 L11,11.6 L3.0603968,10.0120794 Z" id="Combined-Shape-Copy" fill="#000000"></path>
    </g>
</svg>