<?xml version="1.0" encoding="UTF-8"?>
<svg class="" width="24px" height="24px" viewBox="0 0 24 24" version="1.1" xmlns="http://www.w3.org/2000/svg" xmlns:xlink="http://www.w3.org/1999/xlink">
    <!-- Generator: Sketch 50.2 (55047) - http://www.bohemiancoding.com/sketch -->
    <title>Stockholm-icons / Weather / Cloud#1</title>
    <desc>Created with Sketch.</desc>
    <defs></defs>
    <g id="Stockholm-icons-/-Weather-/-Cloud#1" stroke="none" stroke-width="1" fill="none" fill-rule="evenodd">
        <polygon id="Shape" points="0 0 24 0 24 24 0 24"></polygon>
        <path d="M5.74714567,17.0425758 C4.09410362,15.9740356 3,14.1147886 3,12 C3,8.6862915 5.6862915,6 9,6 C11.7957591,6 14.1449096,7.91215918 14.8109738,10.5 L17.25,10.5 C19.3210678,10.5 21,12.1789322 21,14.25 C21,16.3210678 19.3210678,18 17.25,18 L8.25,18 C7.28817895,18 6.41093178,17.6378962 5.74714567,17.0425758 Z" id="Combined-Shape" fill="#000000"></path>
    </g>
</svg>