<?xml version="1.0" encoding="UTF-8"?>
<svg class="" width="24px" height="24px" viewBox="0 0 24 24" version="1.1" xmlns="http://www.w3.org/2000/svg" xmlns:xlink="http://www.w3.org/1999/xlink">
    <!-- Generator: Sketch 50.2 (55047) - http://www.bohemiancoding.com/sketch -->
    <title>Stockholm-icons / Home / Couch</title>
    <desc>Created with Sketch.</desc>
    <defs></defs>
    <g id="Stockholm-icons-/-Home-/-Couch" stroke="none" stroke-width="1" fill="none" fill-rule="evenodd">
        <path d="M6,20 L4,20 C4,17.2385763 6.23857625,16 9,16 L15,16 C17.7614237,16 20,17.2385763 20,20 L18,20 C18,18.3431458 16.6568542,18 15,18 L9,18 C7.34314575,18 6,18.3431458 6,20 Z" id="Path-61" fill="#000000" fill-rule="nonzero" opacity="0.3"></path>
        <path d="M23,8 L21.173913,8 C20.0693435,8 19.173913,8.8954305 19.173913,10 L19.173913,12 C19.173913,12.5522847 18.7261978,13 18.173913,13 L5.86956522,13 C5.31728047,13 4.86956522,12.5522847 4.86956522,12 L4.86956522,10 C4.86956522,8.8954305 3.97413472,8 2.86956522,8 L1,8 C1,6.34314575 2.34314575,5 4,5 L20,5 C21.6568542,5 23,6.34314575 23,8 Z" id="Path" fill="#000000" opacity="0.3"></path>
        <path d="M23,10 L23,15 C23,16.6568542 21.6568542,18 20,18 L4,18 C2.34314575,18 1,16.6568542 1,15 L1,10 L2.86956522,10 L2.86956522,12 C2.86956522,13.6568542 4.21271097,15 5.86956522,15 L18.173913,15 C19.8307673,15 21.173913,13.6568542 21.173913,12 L21.173913,10 L23,10 Z" id="Combined-Shape" fill="#000000"></path>
    </g>
</svg>