<?xml version="1.0" encoding="UTF-8"?>
<svg class="" width="24px" height="24px" viewBox="0 0 24 24" version="1.1" xmlns="http://www.w3.org/2000/svg" xmlns:xlink="http://www.w3.org/1999/xlink">
    <!-- Generator: Sketch 50.2 (55047) - http://www.bohemiancoding.com/sketch -->
    <title>Stockholm-icons / Home / Сupboard</title>
    <desc>Created with Sketch.</desc>
    <defs></defs>
    <g id="Stockholm-icons-/-Home-/-Сupboard" stroke="none" stroke-width="1" fill="none" fill-rule="evenodd">
        <rect id="bound" x="0" y="0" width="24" height="24"></rect>
        <path d="M3.5,3 L9.5,3 C10.3284271,3 11,3.67157288 11,4.5 L11,18.5 C11,19.3284271 10.3284271,20 9.5,20 L3.5,20 C2.67157288,20 2,19.3284271 2,18.5 L2,4.5 C2,3.67157288 2.67157288,3 3.5,3 Z M9,9 C8.44771525,9 8,9.44771525 8,10 L8,12 C8,12.5522847 8.44771525,13 9,13 C9.55228475,13 10,12.5522847 10,12 L10,10 C10,9.44771525 9.55228475,9 9,9 Z" id="Combined-Shape" fill="#000000" opacity="0.3"></path>
        <path d="M14.5,3 L20.5,3 C21.3284271,3 22,3.67157288 22,4.5 L22,18.5 C22,19.3284271 21.3284271,20 20.5,20 L14.5,20 C13.6715729,20 13,19.3284271 13,18.5 L13,4.5 C13,3.67157288 13.6715729,3 14.5,3 Z M20,9 C19.4477153,9 19,9.44771525 19,10 L19,12 C19,12.5522847 19.4477153,13 20,13 C20.5522847,13 21,12.5522847 21,12 L21,10 C21,9.44771525 20.5522847,9 20,9 Z" id="Combined-Shape-Copy" fill="#000000" transform="translate(17.500000, 11.500000) scale(-1, 1) translate(-17.500000, -11.500000) "></path>
    </g>
</svg>