<?xml version="1.0" encoding="UTF-8"?>
<svg class="" width="24px" height="24px" viewBox="0 0 24 24" version="1.1" xmlns="http://www.w3.org/2000/svg" xmlns:xlink="http://www.w3.org/1999/xlink">
    <!-- Generator: Sketch 50.2 (55047) - http://www.bohemiancoding.com/sketch -->
    <title>Stockholm-icons / Design / Eraser</title>
    <desc>Created with Sketch.</desc>
    <defs></defs>
    <g id="Stockholm-icons-/-Design-/-Eraser" stroke="none" stroke-width="1" fill="none" fill-rule="evenodd">
        <rect id="bound" x="0" y="0" width="24" height="24"></rect>
        <path d="M6,9 L6,15 L10,15 L10,9 L6,9 Z M6.25,7 L19.75,7 C20.9926407,7 22,7.81402773 22,8.81818182 L22,15.1818182 C22,16.1859723 20.9926407,17 19.75,17 L6.25,17 C5.00735931,17 4,16.1859723 4,15.1818182 L4,8.81818182 C4,7.81402773 5.00735931,7 6.25,7 Z" id="Rectangle-48" fill="#000000" fill-rule="nonzero" transform="translate(13.000000, 12.000000) rotate(-45.000000) translate(-13.000000, -12.000000) "></path>
    </g>
</svg>