<?xml version="1.0" encoding="UTF-8"?>
<svg class="" width="24px" height="24px" viewBox="0 0 24 24" version="1.1" xmlns="http://www.w3.org/2000/svg" xmlns:xlink="http://www.w3.org/1999/xlink">
    <!-- Generator: Sketch 50.2 (55047) - http://www.bohemiancoding.com/sketch -->
    <title>Stockholm-icons / Text / Filter</title>
    <desc>Created with Sketch.</desc>
    <defs></defs>
    <g id="Stockholm-icons-/-Text-/-Filter" stroke="none" stroke-width="1" fill="none" fill-rule="evenodd">
        <rect id="bound" x="0" y="0" width="24" height="24"></rect>
        <path d="M5,4 L19,4 C19.2761424,4 19.5,4.22385763 19.5,4.5 C19.5,4.60818511 19.4649111,4.71345191 19.4,4.8 L14,12 L14,20.190983 C14,20.4671254 13.7761424,20.690983 13.5,20.690983 C13.4223775,20.690983 13.3458209,20.6729105 13.2763932,20.6381966 L10,19 L10,12 L4.6,4.8 C4.43431458,4.5790861 4.4790861,4.26568542 4.7,4.1 C4.78654809,4.03508894 4.89181489,4 5,4 Z" id="Path-33" fill="#000000"></path>
    </g>
</svg>