<?xml version="1.0" encoding="UTF-8"?>
<svg class="" width="24px" height="24px" viewBox="0 0 24 24" version="1.1" xmlns="http://www.w3.org/2000/svg" xmlns:xlink="http://www.w3.org/1999/xlink">
    <!-- Generator: Sketch 50.2 (55047) - http://www.bohemiancoding.com/sketch -->
    <title>Stockholm-icons / Devices / Mouse</title>
    <desc>Created with Sketch.</desc>
    <defs></defs>
    <g id="Stockholm-icons-/-Devices-/-Mouse" stroke="none" stroke-width="1" fill="none" fill-rule="evenodd">
        <rect id="bound" x="0" y="0" width="24" height="24"></rect>
        <rect id="Combined-Shape" fill="#000000" opacity="0.3" x="6" y="5" width="12" height="18" rx="6"></rect>
        <path d="M11.5,2 L12.5,2 C12.7761424,2 13,2.22385763 13,2.5 L13,5 L11,5 L11,2.5 C11,2.22385763 11.2238576,2 11.5,2 Z" id="Rectangle-2" fill="#000000"></path>
        <rect id="Rectangle-33" fill="#000000" x="11" y="16" width="2" height="5" rx="1"></rect>
    </g>
</svg>