<?xml version="1.0" encoding="UTF-8"?>
<svg class="" width="24px" height="24px" viewBox="0 0 24 24" version="1.1" xmlns="http://www.w3.org/2000/svg" xmlns:xlink="http://www.w3.org/1999/xlink">
    <!-- Generator: Sketch 50.2 (55047) - http://www.bohemiancoding.com/sketch -->
    <title>Stockholm-icons / Media / Play</title>
    <desc>Created with Sketch.</desc>
    <defs></defs>
    <g id="Stockholm-icons-/-Media-/-Play" stroke="none" stroke-width="1" fill="none" fill-rule="evenodd">
        <rect id="bound" x="0" y="0" width="24" height="24"></rect>
        <path d="M9.82866499,18.2771971 L16.5693679,12.3976203 C16.7774696,12.2161036 16.7990211,11.9002555 16.6175044,11.6921539 C16.6029128,11.6754252 16.5872233,11.6596867 16.5705402,11.6450431 L9.82983723,5.72838979 C9.62230202,5.54622572 9.30638833,5.56679309 9.12422426,5.7743283 C9.04415337,5.86555116 9,5.98278612 9,6.10416552 L9,17.9003957 C9,18.1765381 9.22385763,18.4003957 9.5,18.4003957 C9.62084305,18.4003957 9.73759731,18.3566309 9.82866499,18.2771971 Z" id="Path-10" fill="#000000"></path>
    </g>
</svg>