<?xml version="1.0" encoding="UTF-8"?>
<svg class="" width="24px" height="24px" viewBox="0 0 24 24" version="1.1" xmlns="http://www.w3.org/2000/svg" xmlns:xlink="http://www.w3.org/1999/xlink">
    <!-- Generator: Sketch 50.2 (55047) - http://www.bohemiancoding.com/sketch -->
    <title>Stockholm-icons / Cooking / Spoon</title>
    <desc>Created with Sketch.</desc>
    <defs></defs>
    <g id="Stockholm-icons-/-Cooking-/-Spoon" stroke="none" stroke-width="1" fill="none" fill-rule="evenodd">
        <rect id="bound" x="0" y="0" width="24" height="24"></rect>
        <path d="M9.37867966,12.9142136 L10.0857864,13.6213203 C10.4763107,14.0118446 10.4763107,14.6450096 10.0857864,15.0355339 L5.13603897,19.9852814 C4.74551468,20.3758057 4.1123497,20.3758057 3.72182541,19.9852814 L3.01471863,19.2781746 C2.62419433,18.8876503 2.62419433,18.2544853 3.01471863,17.863961 L7.96446609,12.9142136 C8.35499039,12.5236893 8.98815536,12.5236893 9.37867966,12.9142136 Z" id="Rectangle-136" fill="#000000" opacity="0.3"></path>
        <path d="M11.1464466,11.8535534 C12.9038059,13.6109127 15.7530483,13.6109127 17.5104076,11.8535534 C19.267767,10.0961941 21.0355339,5.47918472 19.2781746,3.72182541 C17.5208153,1.96446609 12.9038059,3.73223305 11.1464466,5.48959236 C9.3890873,7.24695167 9.3890873,10.0961941 11.1464466,11.8535534 Z" id="Combined-Shape" fill="#000000"></path>
        <path d="M17.6252814,5.50664746 C18.583231,6.61933269 17.533395,9.3264226 16.4896124,10.3702051 C15.4909168,11.3689007 13.9108118,11.4318321 12.8388429,10.5589992 L17.6252814,5.50664746 Z" id="Combined-Shape" fill="#FFFFFF"></path>
    </g>
</svg>